<svg viewBox="0 0 1660 1116" xmlns="http://www.w3.org/2000/svg">
<style>
    text {        font-size: 28px;        font-family: roboto, sans;        fill: black;        font-weight: 500;    }    .period_title {        fill: #121212;    }    .period {        fill: #a1baa1;    }    .P1 {        fill-opacity: 0.5;        fill: #0098e5;    }    .P2 {        fill-opacity: 0.5;        fill: #7c2b03;    }    .separator {        stroke: black;    }    .is-true { fill: green}    .is-false { fill: red }    .range-self .period {        fill-opacity: 0.5;        fill: #0098e5;    }    .range-range .period {        fill-opacity: 0.5;        fill: #7c2b03;    }    
</style>
<g transform="translate(0, 0)">
<g>
<rect class="period P1" height="32" width="211" x="0" y="0"/>
<text class="period_title" text-anchor="middle" x="105" y="26">
P1
</text>
</g>
<g>
<rect class="period P2" height="32" width="662" x="643" y="0"/>
<text class="period_title" text-anchor="middle" x="974" y="26">
P2
</text>
</g>
<text class="is-false" transform="translate(0, 84)">
p1.is_intersecting(p2) = false
</text>
</g>
<line class="separator" x1="40" x2="1620" y1="99" y2="99"/>
<g transform="translate(0, 124)">
<g>
<rect class="period P1" height="32" width="432" x="211" y="0"/>
<text class="period_title" text-anchor="middle" x="427" y="26">
P1
</text>
</g>
<g>
<rect class="period P2" height="32" width="662" x="643" y="0"/>
<text class="period_title" text-anchor="middle" x="974" y="26">
P2
</text>
</g>
<text class="is-false" transform="translate(0, 84)">
p1.is_intersecting(p2) = false
</text>
</g>
<line class="separator" x1="40" x2="1620" y1="223" y2="223"/>
<g transform="translate(0, 248)">
<g>
<rect class="period P1" height="32" width="364" x="355" y="0"/>
<text class="period_title" text-anchor="middle" x="537" y="26">
P1
</text>
</g>
<g>
<rect class="period P2" height="32" width="662" x="643" y="0"/>
<text class="period_title" text-anchor="middle" x="974" y="26">
P2
</text>
</g>
<text class="is-true" transform="translate(0, 84)">
p1.is_intersecting(p2) = true
</text>
</g>
<line class="separator" x1="40" x2="1620" y1="347" y2="347"/>
<g transform="translate(0, 372)">
<g>
<rect class="period P1" height="32" width="662" x="643" y="0"/>
<text class="period_title" text-anchor="middle" x="974" y="26">
P1
</text>
</g>
<g>
<rect class="period P2" height="32" width="662" x="643" y="0"/>
<text class="period_title" text-anchor="middle" x="974" y="26">
P2
</text>
</g>
<text class="is-true" transform="translate(0, 84)">
p1.is_intersecting(p2) = true
</text>
</g>
<line class="separator" x1="40" x2="1620" y1="471" y2="471"/>
<g transform="translate(0, 496)">
<g>
<rect class="period P1" height="32" width="412" x="720" y="0"/>
<text class="period_title" text-anchor="middle" x="926" y="26">
P1
</text>
</g>
<g>
<rect class="period P2" height="32" width="662" x="643" y="0"/>
<text class="period_title" text-anchor="middle" x="974" y="26">
P2
</text>
</g>
<text class="is-true" transform="translate(0, 84)">
p1.is_intersecting(p2) = true
</text>
</g>
<line class="separator" x1="40" x2="1620" y1="595" y2="595"/>
<g transform="translate(0, 620)">
<g>
<rect class="period P1" height="32" width="1132" x="355" y="0"/>
<text class="period_title" text-anchor="middle" x="921" y="26">
P1
</text>
</g>
<g>
<rect class="period P2" height="32" width="662" x="643" y="0"/>
<text class="period_title" text-anchor="middle" x="974" y="26">
P2
</text>
</g>
<text class="is-true" transform="translate(0, 84)">
p1.is_intersecting(p2) = true
</text>
</g>
<line class="separator" x1="40" x2="1620" y1="719" y2="719"/>
<g transform="translate(0, 744)">
<g>
<rect class="period P1" height="32" width="355" x="1132" y="0"/>
<text class="period_title" text-anchor="middle" x="1309" y="26">
P1
</text>
</g>
<g>
<rect class="period P2" height="32" width="662" x="643" y="0"/>
<text class="period_title" text-anchor="middle" x="974" y="26">
P2
</text>
</g>
<text class="is-true" transform="translate(0, 84)">
p1.is_intersecting(p2) = true
</text>
</g>
<line class="separator" x1="40" x2="1620" y1="843" y2="843"/>
<g transform="translate(0, 868)">
<g>
<rect class="period P1" height="32" width="355" x="1305" y="0"/>
<text class="period_title" text-anchor="middle" x="1482" y="26">
P1
</text>
</g>
<g>
<rect class="period P2" height="32" width="662" x="643" y="0"/>
<text class="period_title" text-anchor="middle" x="974" y="26">
P2
</text>
</g>
<text class="is-false" transform="translate(0, 84)">
p1.is_intersecting(p2) = false
</text>
</g>
<line class="separator" x1="40" x2="1620" y1="967" y2="967"/>
<g transform="translate(0, 992)">
<g>
<rect class="period P1" height="32" width="172" x="1488" y="0"/>
<text class="period_title" text-anchor="middle" x="1574" y="26">
P1
</text>
</g>
<g>
<rect class="period P2" height="32" width="662" x="643" y="0"/>
<text class="period_title" text-anchor="middle" x="974" y="26">
P2
</text>
</g>
<text class="is-false" transform="translate(0, 84)">
p1.is_intersecting(p2) = false
</text>
</g>
<line class="separator" x1="40" x2="1620" y1="1091" y2="1091"/>
</svg>